<svg width="1650" height="671" viewBox="0 0 1650 671" fill="none" xmlns="http://www.w3.org/2000/svg">
<g clip-path="url(#clip0)">
<g opacity="0.85" filter="url(#filter0_d)">
<path d="M1650 23C1172.34 179.925 487.682 179.925 0 23V1156H1650V23Z" fill="white"/>
</g>
<path d="M1653.5 669.5C1001.1 689.9 279.333 412 0 270.5V2048.5H1653.5V669.5Z" fill="white"/>
<g style="mix-blend-mode:multiply" opacity="0.9">
<path d="M1650 23C996.5 228.5 293.5 121.5 0 23V273C648 594 1310.5 683 1650 670V23Z" fill="#FFB23F"/>
</g>
<path d="M1061 754C1107.71 673.252 1165.36 583.591 1232.99 516.645C1378.63 372.469 1561.93 274.127 1760 231V655.823L1413.27 709.958L1061 754Z" fill="url(#paint0_linear)"/>
<path d="M751.328 478.851C1035.36 194.018 1394.32 34 1796 34V656.901C1251.1 743.594 970.787 773.209 508 798C574.091 682.267 655.647 574.801 751.328 478.851Z" fill="url(#paint1_linear)"/>
</g>
<defs>
<filter id="filter0_d" x="-39" y="-39" width="1728" height="1211" filterUnits="userSpaceOnUse" color-interpolation-filters="sRGB">
<feFlood flood-opacity="0" result="BackgroundImageFix"/>
<feColorMatrix in="SourceAlpha" type="matrix" values="0 0 0 0 0 0 0 0 0 0 0 0 0 0 0 0 0 0 127 0"/>
<feOffset dy="-23"/>
<feGaussianBlur stdDeviation="19.5"/>
<feColorMatrix type="matrix" values="0 0 0 0 0 0 0 0 0 0 0 0 0 0 0 0 0 0 0.07 0"/>
<feBlend mode="normal" in2="BackgroundImageFix" result="effect1_dropShadow"/>
<feBlend mode="normal" in="SourceGraphic" in2="effect1_dropShadow" result="shape"/>
</filter>
<linearGradient id="paint0_linear" x1="1989.95" y1="739.319" x2="1989.95" y2="206.268" gradientUnits="userSpaceOnUse">
<stop stop-color="white" stop-opacity="0.4"/>
<stop offset="1" stop-color="white" stop-opacity="0"/>
</linearGradient>
<linearGradient id="paint1_linear" x1="1822.28" y1="798" x2="1822.28" y2="34.0002" gradientUnits="userSpaceOnUse">
<stop stop-color="white" stop-opacity="0.4"/>
<stop offset="1" stop-color="white" stop-opacity="0"/>
</linearGradient>
<clipPath id="clip0">
<rect width="1650" height="671" fill="white"/>
</clipPath>
</defs>
</svg>
