<svg width="375" height="231" viewBox="0 0 375 231" fill="none" xmlns="http://www.w3.org/2000/svg">
<path d="M0 0C145 22.6642 233 21.7925 375 0V231H0V0Z" fill="#FFB23F"/>
<path d="M0 0C145 22.6642 233 21.7925 375 0V231H0V0Z" fill="url(#paint0_radial)"/>
<defs>
<radialGradient id="paint0_radial" cx="0" cy="0" r="1" gradientUnits="userSpaceOnUse" gradientTransform="translate(187.5 141.09) rotate(14.8581) scale(183.405 2760.79)">
<stop stop-color="white" stop-opacity="0.23"/>
<stop offset="1" stop-color="white" stop-opacity="0"/>
</radialGradient>
</defs>
</svg>
