<svg width="137" height="545" viewBox="0 0 137 545" fill="none" xmlns="http://www.w3.org/2000/svg">
<path opacity="0.5" fill-rule="evenodd" clip-rule="evenodd" d="M272.5 46.5385C147.705 46.5385 46.5385 147.705 46.5385 272.5C46.5385 397.295 147.705 498.462 272.5 498.462C397.295 498.462 498.462 397.295 498.462 272.5C498.462 147.705 397.295 46.5385 272.5 46.5385ZM0 272.5C0 122.002 122.002 0 272.5 0C422.998 0 545 122.002 545 272.5C545 422.998 422.998 545 272.5 545C122.002 545 0 422.998 0 272.5Z" fill="#FF5C00"/>
</svg>
