<svg width="346" height="875" viewBox="0 0 346 875" fill="none" xmlns="http://www.w3.org/2000/svg">
<circle opacity="0.24" r="111" transform="matrix(-1 0 0 1 332 666)" fill="#FF5C00"/>
<circle opacity="0.24" r="111" transform="matrix(-1 0 0 1 111 253)" fill="#FF5C00"/>
<circle opacity="0.24" r="38" transform="matrix(-1 0 0 1 196 837)" fill="#FF5C00"/>
<circle opacity="0.24" r="17" transform="matrix(-1 0 0 1 179 606)" fill="#FF5C00"/>
<circle opacity="0.5" r="331.5" transform="matrix(-1 0 0 1 442.5 331.5)" fill="#FF5C00"/>
</svg>
