{
    "key": "group_60150924bf234",
    "title": "Component: Section pictos texte",
    "fields": [
        {
            "key": "field_60150af3c63ff",
            "label": "Section pictos texte",
            "name": "picto_text_section",
            "type": "repeater",
            "instructions": "",
            "required": 0,
            "conditional_logic": 0,
            "wrapper": {
                "width": "",
                "class": "",
                "id": ""
            },
            "collapsed": "",
            "min": 0,
            "max": 0,
            "layout": "table",
            "button_label": "",
            "sub_fields": [
                {
                    "key": "field_60150b27c6400",
                    "label": "Picto",
                    "name": "picto",
                    "type": "component_field",
                    "instructions": "",
                    "required": 0,
                    "conditional_logic": 0,
                    "wrapper": {
                        "width": "",
                        "class": "",
                        "id": ""
                    },
                    "field_group_key": "group_6013dd5bd79b9",
                    "repeatable": 0,
                    "layout": "block",
                    "button_label": "",
                    "appearances": "",
                    "min": null,
                    "max": null,
                    "collapsed": "",
                    "sub_fields": []
                },
                {
                    "key": "field_60150b40c6401",
                    "label": "Texte",
                    "name": "text",
                    "type": "text",
                    "instructions": "",
                    "required": 0,
                    "conditional_logic": 0,
                    "wrapper": {
                        "width": "",
                        "class": "",
                        "id": ""
                    },
                    "default_value": "",
                    "placeholder": "",
                    "prepend": "",
                    "append": "",
                    "maxlength": ""
                }
            ]
        },
        {
            "key": "field_60151a9ff081f",
            "label": "Bouton d'action",
            "name": "link",
            "type": "link",
            "instructions": "",
            "required": 0,
            "conditional_logic": 0,
            "wrapper": {
                "width": "",
                "class": "",
                "id": ""
            },
            "return_format": "array"
        }
    ],
    "location": [],
    "menu_order": 0,
    "position": "normal",
    "style": "default",
    "label_placement": "top",
    "instruction_placement": "label",
    "hide_on_screen": "",
    "active": true,
    "description": "",
    "is_acf_component": 1,
    "acf_component_defaults": {
        "repeatable": "0",
        "min": "0",
        "max": "0",
        "layout": "table",
        "button_label": "",
        "appearances": ""
    },
    "modified": 1612255406
}