<svg width="60" height="60" viewBox="0 0 60 60" fill="none" xmlns="http://www.w3.org/2000/svg">
<path d="M59.3018 13.6646C59.2295 17.9884 57.9862 21.2999 56.2513 24.4524C54.3719 27.8651 52.0876 31.0176 49.3697 33.794C43.7747 39.5061 38.1364 45.1891 32.3535 50.6987C28.9271 53.9668 24.9658 56.5842 20.4985 58.2761C16.624 59.7367 12.6916 60.2139 8.74481 58.6087C6.22925 57.582 4.06066 56.0203 2.32579 53.9235C0.0415468 51.1614 -0.305427 48.1247 1.25595 44.8999C2.51373 42.3114 4.55221 40.3448 6.67742 38.4793C7.41474 37.8286 8.20989 37.2357 8.96167 36.585C11.029 34.7774 13.3856 34.5026 15.9301 35.2546C18.4022 35.9921 20.4263 37.4382 22.031 39.4482C22.4503 39.9833 22.7972 40.0122 23.2599 39.6362C24.1129 38.9421 25.0237 38.2914 25.8043 37.5105C29.5199 33.8374 33.2065 30.1355 36.8786 26.4046C37.7605 25.5225 38.5123 24.5247 39.3219 23.5558C39.6833 23.122 39.6544 22.8039 39.1484 22.3845C36.5172 20.2298 34.7968 17.5257 34.5365 14.0406C34.4209 12.4644 34.8546 11.0617 35.8521 9.80362C37.6015 7.59112 39.3219 5.3497 41.5483 3.58548C42.5892 2.76122 43.7313 1.9948 44.9457 1.41637C47.5191 0.20166 50.1503 0.302886 52.4924 1.96588C56.6995 4.97372 59.1138 9.05166 59.3018 13.6646ZM56.2368 14.6914C56.2368 10.7725 53.9815 6.60779 50.9889 4.6122C49.4419 3.58548 47.7938 3.38303 46.1312 4.16391C45.206 4.59774 44.2373 5.10386 43.5289 5.81244C41.7073 7.6345 40.0303 9.57224 38.2809 11.4666C37.5003 12.3053 37.2979 13.332 37.428 14.4166C37.746 16.9039 39.0761 18.8416 40.9989 20.3021C42.6181 21.5458 42.835 23.1365 41.9242 24.7561C41.3459 25.7683 40.6519 26.7661 39.8423 27.6048C35.6931 31.8708 31.5005 36.0933 27.279 40.2869C26.3971 41.1546 25.3562 41.9065 24.2719 42.5139C22.5226 43.4828 21.2214 43.1212 19.9636 41.5739C18.6625 39.9688 17.0577 38.7541 15.0626 38.1757C13.7759 37.7997 12.4748 37.6695 11.3471 38.5806C9.84356 39.8097 8.28217 41.01 6.90874 42.3837C5.76661 43.5406 4.74015 44.8421 3.91609 46.2448C2.71614 48.2548 3.0342 50.2938 4.53775 52.0725C6.2437 54.0825 8.35446 55.5286 10.8845 56.295C13.8916 57.1916 16.7975 56.5987 19.6311 55.4997C23.7225 53.8945 27.3224 51.4362 30.4596 48.4428C36.0545 43.0779 41.5338 37.5828 46.9553 32.0443C49.6154 29.3257 51.8997 26.26 53.7213 22.8906C55.1525 20.2154 56.1935 17.4389 56.2368 14.6914Z" fill="#FF5C00"/>
<path d="M5.07264 22.992C5.23167 14.5758 11.7808 7.02729 20.0793 5.6969C21.0913 5.53783 22.1322 5.46553 23.1731 5.42214C24.0984 5.37876 24.72 6.00057 24.749 6.8393C24.7779 7.69249 24.1996 8.32876 23.2599 8.34322C20.513 8.40106 17.9107 9.03734 15.5541 10.4834C11.0435 13.2599 8.52792 17.2944 8.07975 22.5871C8.05084 22.9197 8.05084 23.2668 8.02192 23.5994C7.93518 24.5393 7.34243 25.1033 6.48945 25.0744C5.65093 25.0454 5.0871 24.4092 5.07264 23.4837C5.07264 23.3246 5.07264 23.1511 5.07264 22.992Z" fill="#FF5C00"/>
<path d="M10.1764 23.9319C10.4655 16.5569 16.3641 10.6859 23.6939 10.4979C24.4312 10.4834 25.0384 10.6859 25.3565 11.38C25.6023 11.9295 25.5878 12.5224 25.1252 12.9128C24.7927 13.202 24.2867 13.4334 23.8529 13.4479C17.7954 13.7371 13.357 18.1332 13.1546 24.1488C13.1112 25.2479 12.5474 25.8408 11.5932 25.7974C10.6535 25.7684 10.133 25.0743 10.1764 23.9319Z" fill="#FF5C00"/>
<path d="M15.352 24.7418C15.511 19.7962 19.6602 15.7038 24.5757 15.6315C25.6022 15.617 26.2817 16.1666 26.3106 17.0487C26.3395 17.9163 25.6745 18.5237 24.6625 18.567C21.1783 18.7117 18.5181 21.3435 18.3302 24.8286C18.2724 25.9999 17.7085 26.6072 16.7543 26.5494C15.8435 26.506 15.3231 25.8264 15.352 24.7418Z" fill="#FF5C00"/>
</svg>
