<svg width="84" height="48" viewBox="0 0 84 48" fill="none" xmlns="http://www.w3.org/2000/svg">
<path d="M13.0082 17.6165C12.7824 17.6165 12.5565 17.5713 12.3758 17.4358L9.52997 15.6741C8.94274 15.3579 8.76205 14.6351 9.07825 14.0479C9.39446 13.4607 10.1172 13.28 10.7044 13.5962L10.7496 13.6414L13.5954 15.4031C14.1375 15.7644 14.3182 16.4872 14.002 17.0292C13.7761 17.4358 13.4148 17.6617 13.0082 17.6165Z" fill="#FF5C00"/>
<path d="M10.1185 15.9007H3.02651C1.35515 15.9007 0 14.5455 0 12.8742V10.9318C0 9.26043 1.35515 7.90528 3.02651 7.90528H8.31163C9.98299 7.90528 11.3381 9.26043 11.3381 10.9318V14.6811C11.3381 15.3586 10.7961 15.9007 10.1185 15.9007ZM3.02651 10.2994C2.66513 10.2994 2.3941 10.5704 2.3941 10.9318V12.8742C2.3941 13.2356 2.66513 13.5066 3.02651 13.5066H8.94403V10.9318C8.94403 10.5704 8.673 10.2994 8.31163 10.2994H3.02651Z" fill="#FF5C00"/>
<path d="M74.3078 40.2479H8.94411C6.09828 40.2479 3.83969 37.9441 3.83969 35.1435V27.916C3.83969 20.5078 9.84754 14.4999 17.2557 14.4999H66.0414C73.4496 14.4999 79.4574 20.5078 79.4574 27.916V35.1435C79.4574 37.9441 77.1537 40.2479 74.3078 40.2479ZM17.2557 16.894C11.1575 16.894 6.23379 21.8178 6.23379 27.916V35.1435C6.23379 36.6793 7.45344 37.899 8.98928 37.899H74.353C75.8888 37.899 77.1085 36.6793 77.1085 35.1435V27.916C77.1085 21.8178 72.1847 16.894 66.0865 16.894H17.2557Z" fill="#FF5C00"/>
<path d="M17.8427 15.9004C17.3006 15.9004 16.8489 15.4035 16.8489 14.8163C16.8489 14.6356 16.8941 14.4549 16.9844 14.3194L21.8178 4.38159C23.0826 1.8068 25.5671 0.180607 28.2774 0.180607H55.0643C57.7746 0.180607 60.2591 1.8068 61.5239 4.38159L66.3573 14.2742C66.6283 14.8163 66.4476 15.4487 65.9508 15.7197C65.4539 15.9908 64.8666 15.8101 64.5956 15.268L59.7622 5.42055C58.8588 3.52333 57.0519 2.34886 55.0643 2.34886H28.2774C26.2898 2.34886 24.483 3.52333 23.5795 5.42055L18.7461 15.3584C18.5203 15.6746 18.2041 15.9004 17.8427 15.9004Z" fill="#FF5C00"/>
<path d="M17.8427 15.9004L17.8433 15.6746C17.6175 15.6746 17.4368 15.5843 17.3013 15.4488C17.1657 15.3133 17.0754 15.0874 17.0754 14.8615H16.8495L17.0754 14.9067C17.0754 14.8615 17.0754 14.8164 17.0754 14.8164L16.8489 14.8163L17.0754 14.8615V14.8164V14.7712C17.0754 14.6357 17.1206 14.5002 17.1657 14.3647L21.9991 4.42684C23.2188 1.89722 25.6129 0.361375 28.2329 0.361375H55.0198C57.6397 0.361375 60.0339 1.94239 61.2535 4.42684L66.0869 14.3195C66.1321 14.455 66.1772 14.5905 66.1772 14.726C66.1772 15.0422 66.0417 15.3133 65.7707 15.494C65.6352 15.5391 65.5448 15.5843 65.4093 15.5843C65.1383 15.5843 64.8672 15.4488 64.7317 15.1326L59.8983 5.23994C58.9497 3.29755 57.0525 2.03273 55.0198 2.03273H28.2329C26.1549 2.03273 24.3029 3.25237 23.3543 5.19477L18.5209 15.1326C18.3854 15.4036 18.1144 15.5843 17.8433 15.5843H17.6175V15.8102H17.8433V15.5843L17.8427 15.9004L17.8433 16.1264C18.295 16.1264 18.7016 15.8553 18.9274 15.4488L23.7608 5.51097C24.6643 3.7041 26.3808 2.5748 28.2329 2.5748H55.0649C56.9622 2.5748 58.6787 3.7041 59.537 5.51097L64.3704 15.4036C64.5962 15.8553 65.0028 16.0812 65.4545 16.0812C65.6352 16.0812 65.861 16.036 66.0417 15.9457C66.4483 15.7198 66.6741 15.2681 66.6741 14.8164C66.6741 14.6357 66.6289 14.4098 66.5386 14.2291L61.7052 4.3365C60.3952 1.67136 57.8656 0 55.0649 0H28.278C25.4774 0 22.9477 1.67136 21.6377 4.3365L16.8044 14.2743C16.714 14.455 16.6688 14.6809 16.6688 14.8615H16.8947L16.6688 14.7712V14.8164C16.6688 15.1778 16.8044 15.494 17.0302 15.7198C17.2561 15.9457 17.5723 16.1264 17.8885 16.1264H18.1143V15.9005L17.8427 15.9004Z" fill="#FF5C00"/>
<path d="M70.2878 17.6171C69.6102 17.6171 69.1133 17.075 69.1133 16.4426C69.1133 16.0361 69.3392 15.6295 69.7005 15.4488L72.5464 13.6871C73.0884 13.3257 73.8112 13.5064 74.1726 14.0485C74.5339 14.5906 74.3532 15.3133 73.8112 15.6747L73.766 15.7199L70.9202 17.4816C70.7395 17.5719 70.5136 17.6171 70.2878 17.6171Z" fill="#FF5C00"/>
<path d="M80.2253 15.9003H73.1333C72.4557 15.9003 71.9588 15.3582 71.9588 14.7258V10.9765C71.9588 9.30517 73.314 7.95001 74.9854 7.95001H80.2705C81.9418 7.95001 83.2518 9.30517 83.297 10.9765V12.9189C83.2518 14.5451 81.8966 15.9003 80.2253 15.9003ZM74.3078 13.5062H80.2253C80.5867 13.5062 80.8577 13.2351 80.8577 12.8737V10.9314C80.8577 10.57 80.5867 10.299 80.2253 10.299H74.9402C74.5788 10.299 74.3078 10.57 74.3078 10.9314V13.5062Z" fill="#FF5C00"/>
<path d="M65.3195 33.7431C62.4285 33.7431 60.0344 31.3942 60.0344 28.458C60.0344 25.5218 62.3833 23.1729 65.3195 23.1729C68.2557 23.1729 70.6046 25.5218 70.6046 28.458C70.6046 31.3942 68.2557 33.7431 65.3195 33.7431ZM65.3195 25.6122C63.7385 25.6122 62.4285 26.9222 62.4285 28.5032C62.4285 30.0842 63.7385 31.3942 65.3195 31.3942C66.9005 31.3942 68.2105 30.0842 68.2105 28.5032C68.2105 26.9222 66.9457 25.6122 65.3195 25.6122Z" fill="#FF5C00"/>
<path d="M17.9331 33.7431C15.0421 33.7431 12.648 31.3942 12.648 28.458C12.648 25.5218 14.9969 23.1729 17.9331 23.1729C20.8693 23.1729 23.2182 25.5218 23.2182 28.458C23.173 31.3942 20.8241 33.7431 17.9331 33.7431ZM17.9331 25.6122C16.3521 25.6122 15.0421 26.9222 15.0421 28.5032C15.0421 30.0842 16.3521 31.3942 17.9331 31.3942C19.5141 31.3942 20.8241 30.0842 20.8241 28.5032C20.8241 26.9222 19.5141 25.6122 17.9331 25.6122Z" fill="#FF5C00"/>
<path d="M70.0625 47.9279H62.835C61.2992 47.9279 60.0344 46.663 60.0344 45.1272V39.029C60.0344 38.3514 60.5764 37.8545 61.2088 37.8545H71.6435C72.3211 37.8545 72.818 38.3966 72.818 39.029V45.1272C72.8632 46.7082 71.5984 47.9279 70.0625 47.9279ZM62.4285 40.2486V45.1272C62.4285 45.3531 62.6092 45.5337 62.835 45.5337H70.0625C70.2884 45.5337 70.4691 45.3531 70.4691 45.1272V40.2486H62.4285Z" fill="#FF5C00"/>
<path d="M20.4625 47.9279H13.235C11.6991 47.9279 10.4343 46.663 10.4343 45.1272V39.029C10.4343 38.3514 10.9764 37.8545 11.6088 37.8545H22.0435C22.7211 37.8545 23.218 38.3966 23.218 39.029V45.1272C23.218 46.7082 21.9983 47.9279 20.4625 47.9279ZM12.7833 40.2486V45.1272C12.7833 45.3531 12.964 45.5337 13.1898 45.5337H20.4173C20.6432 45.5337 20.8239 45.3531 20.8239 45.1272V40.2486H12.7833Z" fill="#FF5C00"/>
<path d="M50.0963 30.717H33.1569C32.8858 30.717 32.6148 30.6267 32.4341 30.446C32.2534 30.2653 32.1631 30.0394 32.1631 29.7232V28.2777C32.1631 28.0067 32.2534 27.7357 32.4341 27.555C32.6148 27.3743 32.8407 27.284 33.1569 27.284H50.0963C50.3674 27.284 50.6384 27.3743 50.8191 27.555C50.9998 27.7357 51.0901 27.9615 51.0901 28.2777V29.7232C51.0901 29.9943 50.9998 30.2653 50.8191 30.446C50.6384 30.6267 50.4125 30.717 50.0963 30.717V32.9756C50.9998 32.9756 51.8129 32.6142 52.4001 32.027C52.9873 31.4398 53.3487 30.6267 53.3487 29.7232V28.2777C53.3487 27.3743 52.9873 26.5612 52.4001 25.974C51.8129 25.3867 50.9998 25.0254 50.0963 25.0254H33.1569C32.2534 25.0254 31.4403 25.3867 30.8531 25.974C30.2659 26.5612 29.9045 27.3743 29.9045 28.2777V29.7232C29.9045 30.6267 30.2659 31.4398 30.8531 32.027C31.4403 32.6142 32.2534 32.9756 33.1569 32.9756H50.0963V30.717Z" fill="#FF5C00"/>
</svg>
