<svg width="61" height="61" viewBox="0 0 61 61" fill="none" xmlns="http://www.w3.org/2000/svg">
<path d="M57.5171 37.902C53.9374 34.3336 48.7129 33.4656 44.3109 35.298V14.2253C44.3109 13.3573 43.9722 12.5375 43.3434 11.9107L32.314 0.964427C32.0722 0.72332 31.7335 0.482214 31.4433 0.33755H31.3949L31.2982 0.289328C30.9112 0.0964429 30.4758 0 29.9921 0H3.43458C1.54798 0 0 1.54308 0 3.42372V57.5763C0 59.4569 1.54798 61 3.43458 61H40.8279C42.6661 61 44.1657 59.5534 44.2625 57.7692V57.4798C45.7621 58.1067 47.3584 58.3961 48.9548 58.3961C52.0508 58.3961 55.1467 57.2387 57.4687 54.8759C59.7423 52.6095 61 49.5715 61 46.3889C61 43.2063 59.7906 40.1684 57.5171 37.902ZM40.2474 12.2H32.314C32.1689 12.2 32.0722 12.1036 32.0722 11.9589V4.05059L40.2474 12.2ZM41.8921 57.6727C41.8438 58.2032 41.36 58.6372 40.8279 58.6372H3.43458C2.85408 58.6372 2.37034 58.1549 2.37034 57.5763V3.42372C2.37034 2.84506 2.85408 2.36285 3.43458 2.36285H29.6534V11.9107C29.6534 13.3573 30.8628 14.5628 32.314 14.5628H41.8921V36.6C41.36 36.9858 40.8763 37.3715 40.3925 37.8538C38.119 40.1202 36.8612 43.1581 36.8612 46.3407C36.8612 49.5233 38.119 52.5613 40.3925 54.8277C40.8763 55.3099 41.36 55.6957 41.8438 56.0814L41.8921 57.6727ZM55.824 53.1881C52.0508 56.9494 45.9072 56.9494 42.134 53.1881C40.2958 51.3557 39.2799 48.9447 39.2799 46.3889C39.2799 43.8332 40.2958 41.3739 42.134 39.5897C44.0206 37.7091 46.4877 36.7929 48.9548 36.7929C51.4219 36.7929 53.889 37.7573 55.7756 39.5897C57.6138 41.4221 58.6297 43.8332 58.6297 46.3889C58.6297 48.9447 57.6622 51.404 55.824 53.1881Z" fill="#FF5C00"/>
<path d="M8.41732 18.9992H25.0581C25.7353 18.9992 26.2674 18.4687 26.2674 17.7936C26.2674 17.1185 25.7353 16.5881 25.0581 16.5881H8.41732C7.74008 16.5881 7.20796 17.1185 7.20796 17.7936C7.20796 18.4205 7.74008 18.9992 8.41732 18.9992Z" fill="#FF5C00"/>
<path d="M29.2183 38.0466H8.41732C7.74008 38.0466 7.20796 38.577 7.20796 39.2521C7.20796 39.9272 7.74008 40.4577 8.41732 40.4577H29.2183C29.8955 40.4577 30.4276 39.9272 30.4276 39.2521C30.4276 38.577 29.8955 38.0466 29.2183 38.0466Z" fill="#FF5C00"/>
<path d="M29.2183 45.1833H8.41732C7.74008 45.1833 7.20796 45.7137 7.20796 46.3888C7.20796 47.0639 7.74008 47.5943 8.41732 47.5943H29.2183C29.8955 47.5943 30.4276 47.0639 30.4276 46.3888C30.4276 45.7137 29.8955 45.1833 29.2183 45.1833Z" fill="#FF5C00"/>
<path d="M35.9423 30.8617H8.41732C7.74008 30.8617 7.20796 31.3921 7.20796 32.0672C7.20796 32.7423 7.74008 33.2727 8.41732 33.2727H35.9423C36.6195 33.2727 37.1517 32.7423 37.1517 32.0672C37.1517 31.3921 36.6195 30.8617 35.9423 30.8617Z" fill="#FF5C00"/>
<path d="M8.32 26.1841H29.8949C30.5722 26.1841 31.1043 25.6537 31.1043 24.9786C31.1043 24.3035 30.5722 23.773 29.8949 23.773H8.32C7.64276 23.773 7.11065 24.3035 7.11065 24.9786C7.11065 25.6537 7.64276 26.1841 8.32 26.1841Z" fill="#FF5C00"/>
<path d="M35.797 23.8213C36.4742 23.8213 37.0063 24.3517 37.0063 25.0268C37.0063 25.7019 36.4742 26.2324 35.797 26.2324C35.1197 26.2324 34.5876 25.7019 34.5876 25.0268C34.5876 24.3517 35.1197 23.8213 35.797 23.8213Z" fill="#FF5C00"/>
<path d="M53.2115 42.1937C52.7278 41.7115 52.0022 41.7115 51.5184 42.1937L49.003 44.7012L46.4875 42.1937C46.0038 41.7115 45.2782 41.7115 44.7944 42.1937C44.3107 42.6759 44.3107 43.3992 44.7944 43.8814L47.3099 46.3889L44.7944 48.8964C44.3107 49.3787 44.3107 50.102 44.7944 50.5842C45.0363 50.8253 45.3265 50.9217 45.6168 50.9217C45.907 50.9217 46.2456 50.8253 46.4391 50.5842L48.9546 48.0767L51.4701 50.5842C51.7119 50.8253 52.0022 50.9217 52.2924 50.9217C52.5827 50.9217 52.9213 50.8253 53.1148 50.5842C53.5985 50.102 53.5985 49.3787 53.1148 48.8964L50.5993 46.3889L53.1148 43.8814C53.6469 43.3992 53.6469 42.6277 53.2115 42.1937Z" fill="#FF5C00"/>
</svg>
