<svg width="60" height="60" viewBox="0 0 60 60" fill="none" xmlns="http://www.w3.org/2000/svg">
<path d="M24.3207 24.9504C24.8133 24.9504 25.1418 24.9504 25.4702 24.9504C34.7318 24.9504 43.9934 24.9504 53.255 24.9174C55.0942 24.9174 56.6706 25.4784 57.7544 27.0293C58.9368 28.7122 59.0353 30.56 58.1157 32.3749C57.229 34.1568 55.6854 35.0807 53.7148 35.0807C50.7918 35.1137 47.836 35.0807 44.913 35.0807C44.5846 35.0807 44.2561 35.0807 43.9277 35.0807C45.2086 39.8654 44.4532 41.6143 40.4464 43.1982C41.3331 44.7161 41.6616 46.333 40.9719 48.0489C40.2822 49.7317 39.0013 50.6887 37.4577 51.1506C37.6876 52.2726 38.0817 53.3285 38.1146 54.4174C38.1474 57.0902 35.9798 59.3341 33.2867 59.3671C26.0613 59.4001 18.8031 59.4661 11.5778 59.3671C5.92884 59.2681 1.36372 54.6814 1.16667 48.9728C1.06814 45.871 1.06814 42.7692 1.16667 39.6674C1.33088 34.3878 3.49849 30.0321 7.11118 26.2703C11.7091 21.4857 16.1757 16.569 20.6752 11.6853C21.7918 10.4644 22.8428 9.1445 23.9594 7.89058C25.8643 5.74573 28.7544 5.44875 30.8564 7.16463C32.9583 8.84752 33.2539 11.6853 31.6774 14.0282C29.3784 17.3939 27.1123 20.7597 24.8133 24.1255C24.682 24.3235 24.5506 24.5215 24.3207 24.9504ZM38.2788 27.0293C33.221 27.0293 28.1633 27.0293 23.1055 27.0293C22.7442 27.0293 22.3501 27.0293 22.0217 26.9303C21.3649 26.7323 21.1021 26.2703 21.3649 25.5774C21.4962 25.2804 21.6933 24.9834 21.8903 24.7194C24.6163 20.6937 27.375 16.701 30.0353 12.6423C30.4294 12.0483 30.5936 11.1904 30.5279 10.4974C30.4294 9.30948 29.6083 8.55054 28.4589 8.22056C27.3422 7.89058 26.3898 8.22056 25.6672 9.0455C24.3535 10.4974 23.1055 12.0483 21.759 13.5002C17.2595 18.4169 12.7601 23.2675 8.19498 28.1182C5.46905 31.022 3.62986 34.3878 3.36712 38.3805C3.13722 41.9443 3.10438 45.574 3.23575 49.1378C3.39996 53.1305 6.32295 56.2983 10.1984 57.0902C10.8881 57.2222 11.6435 57.2882 12.366 57.2882C19.1972 57.2882 26.0613 57.2882 32.8926 57.2882C34.7318 57.2882 36.0126 56.0673 36.0783 54.3844C36.144 52.7015 34.8632 51.4146 33.024 51.3156C32.0715 51.2826 31.0863 51.2826 30.1338 51.2826C29.5427 51.2826 28.9187 51.2826 28.3275 51.2826C27.7035 51.2496 27.2765 50.9197 27.2437 50.2927C27.2437 49.5998 27.7035 49.2698 28.3603 49.2368C28.5574 49.2368 28.7873 49.2368 28.9843 49.2368C31.4147 49.2368 33.845 49.2368 36.2425 49.2368C37.7861 49.2368 39.0342 48.1148 39.1984 46.6629C39.3954 45.0791 38.5415 43.7261 36.9979 43.3302C36.571 43.1982 36.1112 43.1982 35.6514 43.1982C33.6808 43.1982 31.7103 43.1982 29.7397 43.1982C29.0829 43.1982 28.6231 42.9012 28.5902 42.1753C28.5902 41.4493 29.05 41.1853 29.7069 41.1523C29.9368 41.1523 30.1995 41.1523 30.4294 41.1523C33.3524 41.1523 36.3082 41.1523 39.2312 41.0863C39.8881 41.0863 40.6435 40.8883 41.2018 40.5914C42.3184 39.9314 42.7454 38.4795 42.3513 37.1266C42.0228 35.9717 40.939 35.1467 39.5925 35.1137C36.8994 35.0807 34.2063 35.0807 31.5132 35.1137C30.7578 35.1137 30.1667 34.9487 30.0681 34.0908C30.0025 33.3978 30.5608 33.0349 31.5461 33.0019C31.7103 33.0019 31.8416 33.0019 32.0059 33.0019C39.1984 33.0019 46.3581 33.0019 53.5506 32.9689C55.8824 32.9689 57.2618 30.692 56.2437 28.6132C55.7182 27.5242 54.7658 27.0293 53.5834 27.0293C48.5257 27.0293 43.4022 27.0293 38.2788 27.0293Z" fill="#FF5C00"/>
<path d="M42.9099 1.58797C42.7785 2.08293 42.7129 2.34692 42.6472 2.6109C41.4977 6.14166 40.3482 9.67242 39.1659 13.1702C39.0345 13.5662 38.6404 13.9951 38.2791 14.1931C38.0164 14.3251 37.4252 14.1601 37.261 13.8961C37.0311 13.5992 36.8997 13.0382 37.0311 12.6752C37.9835 9.54043 39.0345 6.43864 40.0526 3.30385C40.2497 2.67689 40.381 1.98394 40.7095 1.42298C40.9394 1.06 41.5305 0.730026 41.9246 0.763024C42.2859 0.796022 42.6143 1.32399 42.9099 1.58797Z" fill="#FF5C00"/>
<path d="M57.1634 16.5031C56.9663 16.6681 56.6708 17.1631 56.2767 17.2951C52.6311 18.549 48.9528 19.7699 45.2744 20.9908C44.6175 21.2218 44.0264 21.0568 43.7965 20.3638C43.5337 19.6379 43.8622 19.1099 44.5518 18.8459C48.2302 17.592 51.8757 16.3711 55.5541 15.1502C56.4737 14.8532 57.1634 15.3152 57.1634 16.5031Z" fill="#FF5C00"/>
<path d="M43.3365 15.7112C43.0409 15.4473 42.614 15.2493 42.5154 14.9523C42.4169 14.5893 42.4169 13.9624 42.6468 13.6984C44.0262 12.2135 45.4713 10.7946 46.9164 9.37566C47.3761 8.9137 47.9673 8.94669 48.4599 9.44166C48.9197 9.93663 48.9197 10.4976 48.4599 10.9926C47.0806 12.4115 45.6683 13.8304 44.2233 15.2493C44.0262 15.4803 43.6978 15.5462 43.3365 15.7112Z" fill="#FF5C00"/>
<path d="M24.3207 24.9504C24.8133 24.9504 25.1418 24.9504 25.4702 24.9504C34.7318 24.9504 43.9934 24.9504 53.255 24.9174C55.0942 24.9174 56.6706 25.4784 57.7544 27.0293C58.9368 28.7122 59.0353 30.56 58.1157 32.3749C57.229 34.1568 55.6854 35.0807 53.7148 35.0807C50.7918 35.1137 47.836 35.0807 44.913 35.0807C44.5846 35.0807 44.2561 35.0807 43.9277 35.0807C45.2086 39.8654 44.4532 41.6143 40.4464 43.1982C41.3331 44.7161 41.6616 46.333 40.9719 48.0489C40.2822 49.7317 39.0013 50.6887 37.4577 51.1506C37.6876 52.2726 38.0817 53.3285 38.1146 54.4174C38.1474 57.0902 35.9798 59.3341 33.2867 59.3671C26.0613 59.4001 18.8031 59.4661 11.5778 59.3671C5.92884 59.2681 1.36372 54.6814 1.16667 48.9728C1.06814 45.871 1.06814 42.7692 1.16667 39.6674C1.33088 34.3878 3.49849 30.0321 7.11118 26.2703C11.7091 21.4857 16.1757 16.569 20.6752 11.6853C21.7918 10.4644 22.8428 9.1445 23.9594 7.89058C25.8643 5.74573 28.7544 5.44875 30.8564 7.16463C32.9583 8.84752 33.2539 11.6853 31.6774 14.0282C29.3784 17.3939 27.1123 20.7597 24.8133 24.1255C24.682 24.3235 24.5506 24.5215 24.3207 24.9504ZM38.2788 27.0293C33.221 27.0293 28.1633 27.0293 23.1055 27.0293C22.7442 27.0293 22.3501 27.0293 22.0217 26.9303C21.3649 26.7323 21.1021 26.2703 21.3649 25.5774C21.4962 25.2804 21.6933 24.9834 21.8903 24.7194C24.6163 20.6937 27.375 16.701 30.0353 12.6423C30.4294 12.0483 30.5936 11.1904 30.5279 10.4974C30.4294 9.30948 29.6083 8.55054 28.4589 8.22056C27.3422 7.89058 26.3898 8.22056 25.6672 9.0455C24.3535 10.4974 23.1055 12.0483 21.759 13.5002C17.2595 18.4169 12.7601 23.2675 8.19498 28.1182C5.46905 31.022 3.62986 34.3878 3.36712 38.3805C3.13722 41.9443 3.10438 45.574 3.23575 49.1378C3.39996 53.1305 6.32295 56.2983 10.1984 57.0902C10.8881 57.2222 11.6435 57.2882 12.366 57.2882C19.1972 57.2882 26.0613 57.2882 32.8926 57.2882C34.7318 57.2882 36.0126 56.0673 36.0783 54.3844C36.144 52.7015 34.8632 51.4146 33.024 51.3156C32.0715 51.2826 31.0863 51.2826 30.1338 51.2826C29.5427 51.2826 28.9187 51.2826 28.3275 51.2826C27.7035 51.2496 27.2765 50.9197 27.2437 50.2927C27.2437 49.5998 27.7035 49.2698 28.3603 49.2368C28.5574 49.2368 28.7873 49.2368 28.9843 49.2368C31.4147 49.2368 33.845 49.2368 36.2425 49.2368C37.7861 49.2368 39.0342 48.1148 39.1984 46.6629C39.3954 45.0791 38.5415 43.7261 36.9979 43.3302C36.571 43.1982 36.1112 43.1982 35.6514 43.1982C33.6808 43.1982 31.7103 43.1982 29.7397 43.1982C29.0829 43.1982 28.6231 42.9012 28.5902 42.1753C28.5902 41.4493 29.05 41.1853 29.7069 41.1523C29.9368 41.1523 30.1995 41.1523 30.4294 41.1523C33.3524 41.1523 36.3082 41.1523 39.2312 41.0863C39.8881 41.0863 40.6435 40.8883 41.2018 40.5914C42.3184 39.9314 42.7454 38.4795 42.3513 37.1266C42.0228 35.9717 40.939 35.1467 39.5925 35.1137C36.8994 35.0807 34.2063 35.0807 31.5132 35.1137C30.7578 35.1137 30.1667 34.9487 30.0681 34.0908C30.0025 33.3978 30.5608 33.0349 31.5461 33.0019C31.7103 33.0019 31.8416 33.0019 32.0059 33.0019C39.1984 33.0019 46.3581 33.0019 53.5506 32.9689C55.8824 32.9689 57.2618 30.692 56.2437 28.6132C55.7182 27.5242 54.7658 27.0293 53.5834 27.0293C48.5257 27.0293 43.4022 27.0293 38.2788 27.0293Z" stroke="#FF5C00" stroke-miterlimit="10"/>
<path d="M42.9099 1.58797C42.7785 2.08293 42.7129 2.34692 42.6472 2.6109C41.4977 6.14166 40.3482 9.67242 39.1659 13.1702C39.0345 13.5662 38.6404 13.9951 38.2791 14.1931C38.0164 14.3251 37.4252 14.1601 37.261 13.8961C37.0311 13.5992 36.8997 13.0382 37.0311 12.6752C37.9835 9.54043 39.0345 6.43864 40.0526 3.30385C40.2497 2.67689 40.381 1.98394 40.7095 1.42298C40.9394 1.06 41.5305 0.730026 41.9246 0.763024C42.2859 0.796022 42.6143 1.32399 42.9099 1.58797Z" stroke="#FF5C00" stroke-miterlimit="10"/>
<path d="M57.1634 16.5031C56.9663 16.6681 56.6708 17.1631 56.2767 17.2951C52.6311 18.549 48.9528 19.7699 45.2744 20.9908C44.6175 21.2218 44.0264 21.0568 43.7965 20.3638C43.5337 19.6379 43.8622 19.1099 44.5518 18.8459C48.2302 17.592 51.8757 16.3711 55.5541 15.1502C56.4737 14.8532 57.1634 15.3152 57.1634 16.5031Z" stroke="#FF5C00" stroke-miterlimit="10"/>
<path d="M43.3365 15.7112C43.0409 15.4473 42.614 15.2493 42.5154 14.9523C42.4169 14.5893 42.4169 13.9624 42.6468 13.6984C44.0262 12.2135 45.4713 10.7946 46.9164 9.37566C47.3761 8.9137 47.9673 8.94669 48.4599 9.44166C48.9197 9.93663 48.9197 10.4976 48.4599 10.9926C47.0806 12.4115 45.6683 13.8304 44.2233 15.2493C44.0262 15.4803 43.6978 15.5462 43.3365 15.7112Z" stroke="#FF5C00" stroke-miterlimit="10"/>
</svg>
