<svg width="73" height="47" viewBox="0 0 73 47" fill="none" xmlns="http://www.w3.org/2000/svg">
<path d="M69.6343 0H59.4006C58.8093 0 58.309 0.503408 58.309 1.09834C58.309 1.69328 58.8093 2.19669 59.4006 2.19669H69.6343C70.3165 2.19669 70.8623 2.74586 70.8623 3.43233V43.6592C70.8623 44.3457 70.3165 44.8948 69.6343 44.8948H3.36573C2.68349 44.8948 2.13769 44.3457 2.13769 43.6592V3.38656C2.13769 2.7001 2.68349 2.15092 3.36573 2.15092H54.2156C54.8068 2.15092 55.3072 1.64752 55.3072 1.05258C55.3072 0.457644 54.8068 0 54.2156 0H3.36573C1.50093 0 0 1.51022 0 3.38656V43.6134C0 45.4898 1.50093 47 3.36573 47H69.6343C71.4991 47 73 45.4898 73 43.6134V3.38656C73 1.51022 71.4991 0 69.6343 0Z" fill="#FF5C00"/>
<path d="M68.4513 6.63573C68.4513 6.17808 68.0874 5.81197 67.6326 5.81197H51.6681C51.2133 5.81197 50.8494 6.17808 50.8494 6.63573V24.4838C50.8494 24.9415 51.2133 25.3076 51.6681 25.3076H67.6326C68.0874 25.3076 68.4513 24.9415 68.4513 24.4838V6.63573ZM56.0345 23.6601V20.9142C56.0345 20.4108 56.4438 19.9532 56.9896 19.9532H62.3111C62.8114 19.9532 63.2662 20.365 63.2662 20.9142V23.6601H56.0345ZM66.7684 23.6601H64.9036V20.9142C64.9036 19.4498 63.7211 18.3056 62.3111 18.3056H56.9896C55.5342 18.3056 54.3971 19.4955 54.3971 20.9142V23.6601H52.5323V7.50525H66.8139V23.6601H66.7684Z" fill="#FF5C00"/>
<path d="M68.4513 6.63573L68.6334 6.63594C68.6334 6.08677 68.1786 5.62912 67.6328 5.62912H51.6683C51.1225 5.62912 50.6677 6.08677 50.6677 6.63594V24.484C50.6677 25.0332 51.1225 25.4909 51.6683 25.4909H67.6328C68.1786 25.4909 68.6334 25.0332 68.6334 24.484V6.63594L68.4513 6.63573L68.2696 6.63594V24.484C68.2696 24.8502 67.9512 25.1705 67.5873 25.1705H51.6228C51.259 25.1705 50.9406 24.8502 50.9406 24.484V6.63594C50.9406 6.26982 51.259 5.94947 51.6228 5.94947H67.5873C67.9512 5.94947 68.2696 6.26982 68.2696 6.63594L68.4513 6.63573ZM56.0345 23.6601L56.2166 23.6603V20.9144C56.2166 20.5025 56.5805 20.1364 56.9898 20.1364H62.3113C62.7207 20.1364 63.0845 20.5025 63.0845 20.9144V23.4772H56.0347L56.0345 23.6601L56.0347 23.8433H63.4029V20.9602C63.4029 20.3195 62.9026 19.8618 62.3113 19.8618H56.9898C56.3531 19.8618 55.8982 20.3652 55.8982 20.9602V23.8433H56.0802V23.6603L56.0345 23.6601ZM66.7684 23.6601L66.7686 23.4772H65.0403V20.9144C65.0403 19.3584 63.8123 18.1228 62.2658 18.1228H56.9443C55.3979 18.1228 54.1699 19.3584 54.1699 20.9144V23.4772H52.6235V7.64276H66.5867V23.6603L66.7684 23.6601L66.9506 23.6603V7.3224H52.3051V23.8433H54.5337V20.9602C54.5337 20.2737 54.8066 19.6788 55.2615 19.2211C55.7163 18.7635 56.3076 18.4889 56.9898 18.4889H62.3113C62.9936 18.4889 63.5848 18.7635 64.0397 19.2211C64.4945 19.6788 64.7674 20.2737 64.7674 20.9602V23.8433H66.9961V23.6603L66.7684 23.6601Z" fill="#FF5C00"/>
<path d="M59.6285 17.0701C61.6297 17.0701 63.2216 15.4684 63.2216 13.4547C63.2216 11.4411 61.6297 9.83934 59.6285 9.83934C57.6272 9.83934 56.0353 11.4411 56.0353 13.4547C56.0353 15.4226 57.6272 17.0701 59.6285 17.0701ZM59.6285 11.2123C60.8565 11.2123 61.8571 12.2191 61.8571 13.4547C61.8571 14.6904 60.8565 15.6972 59.6285 15.6972C58.4004 15.6972 57.3998 14.6904 57.3998 13.4547C57.3998 12.2191 58.4004 11.2123 59.6285 11.2123Z" fill="#FF5C00"/>
<path d="M59.6285 17.0701L59.6276 17.2531C61.7198 17.2531 63.4027 15.5598 63.4027 13.4547C63.4027 11.3495 61.7198 9.65623 59.6276 9.65623C57.5354 9.65623 55.8525 11.3495 55.8525 13.4547C55.8525 15.5598 57.5354 17.2531 59.6276 17.2531L59.6285 17.0701L59.6276 16.887C58.6725 16.887 57.8083 16.5209 57.217 15.8802C56.5803 15.2395 56.2164 14.4157 56.2164 13.4547C56.2164 12.4936 56.5803 11.6241 57.217 11.0292C57.8538 10.3885 58.6725 10.0223 59.6276 10.0223C60.5828 10.0223 61.4469 10.3885 62.0382 11.0292C62.675 11.6699 63.0388 12.4936 63.0388 13.4547C63.0388 14.4157 62.675 15.2852 62.0382 15.8802C61.4014 16.5209 60.5828 16.887 59.6276 16.887L59.6285 17.0701ZM59.6285 11.2123L59.6276 11.3953C60.1734 11.3953 60.7192 11.6241 61.0831 11.9902C61.4469 12.3563 61.6743 12.9055 61.6743 13.4547C61.6743 14.0038 61.4469 14.553 61.0831 14.9191C60.7192 15.2852 60.1734 15.5141 59.6276 15.5141C59.0818 15.5141 58.536 15.2852 58.1722 14.9191C57.8083 14.553 57.5809 14.0038 57.5809 13.4547C57.5809 12.9055 57.8083 12.3563 58.1722 11.9902C58.536 11.6241 59.0818 11.3953 59.6276 11.3953L59.6285 11.2123L59.6276 11.0292C58.3086 11.0292 57.217 12.1275 57.217 13.4547C57.217 14.7818 58.3086 15.8802 59.6276 15.8802C60.9466 15.8802 62.0382 14.7818 62.0382 13.4547C62.0382 12.1275 60.9466 11.0292 59.6276 11.0292L59.6285 11.2123Z" fill="#FF5C00"/>
<path d="M39.979 5.81197H14.8725C14.2812 5.81197 13.7809 6.31538 13.7809 6.91031C13.7809 7.50525 14.2812 8.00866 14.8725 8.00866H40.0245C40.6158 8.00866 41.1161 7.50525 41.1161 6.91031C41.1161 6.31538 40.5703 5.81197 39.979 5.81197Z" fill="#FF5C00"/>
<path d="M51.3506 37.8013H26.1986C25.6073 37.8013 25.107 38.3047 25.107 38.8997C25.107 39.4946 25.6073 39.998 26.1986 39.998H51.3506C51.9419 39.998 52.4422 39.4946 52.4422 38.8997C52.4422 38.3047 51.9419 37.8013 51.3506 37.8013Z" fill="#FF5C00"/>
<path d="M40.9805 12.2192C40.9805 11.6243 40.4802 11.1208 39.8889 11.1208H26.1986C25.6073 11.1208 25.107 11.6243 25.107 12.2192C25.107 12.8141 25.6073 13.3175 26.1986 13.3175H39.8889C40.5257 13.2718 40.9805 12.8141 40.9805 12.2192Z" fill="#FF5C00"/>
<path d="M26.1986 24.667H33.0665C33.6577 24.667 34.1581 25.1705 34.1581 25.7654C34.1581 26.3603 33.6577 26.8637 33.0665 26.8637H26.1986C25.6073 26.8637 25.107 26.3603 25.107 25.7654C25.107 25.1705 25.6073 24.667 26.1986 24.667Z" fill="#FF5C00"/>
<path d="M59.1279 37.8013C58.5367 37.8013 58.0363 38.3047 58.0363 38.8997C58.0363 39.4946 58.5367 39.998 59.1279 39.998H67.1329C67.7242 39.998 68.2245 39.4946 68.2245 38.8997C68.2245 38.3047 67.7242 37.8013 67.1329 37.8013H59.1279Z" fill="#FF5C00"/>
<path d="M38.7518 32.5843H26.1986C25.6073 32.5843 25.107 32.0809 25.107 31.4859C25.107 30.891 25.6073 30.3876 26.1986 30.3876H38.7518C39.3431 30.3876 39.8434 30.891 39.8434 31.4859C39.8434 32.0809 39.3431 32.5843 38.7518 32.5843Z" fill="#FF5C00"/>
<path d="M15.9647 24.0263H8.2781C7.36844 24.0263 6.64071 23.2941 6.64071 22.3788V14.6904C6.64071 13.7751 7.36844 13.0428 8.2781 13.0428H15.9647C16.8744 13.0428 17.6021 13.7751 17.6021 14.6904V22.4245C17.5566 23.2941 16.8744 24.0263 15.9647 24.0263Z" fill="#FF5C00"/>
<path d="M1.41018 2.15082L19.8307 46.5423L21.923 45.627L3.50239 1.23553" fill="#FF5C00"/>
</svg>
